…
precipitation2019_df = 
  read_excel("./data/Trash-Wheel-Collection-Totals-7-2020-2.xlsx", sheet = "2019 Precipitation", range = "A2:B15") %>% 
  janitor::clean_names() %>% #clean variables' names
  drop_na(month) %>%  #omit rows without precipitation data
  mutate(year = "2019") #add an variable for year

precipitation_df = 
  bind_rows(precipitation2018_df, precipitation2019_df) %>% 
  mutate(month = month.name[month])
precipitation_df
```

    ## # A tibble: 24 × 3
    ##    month     total year 
    ##    <chr>     <dbl> <chr>
    ##  1 January    0.94 2018 
    ##  2 February   4.8  2018 
    ##  3 March      2.69 2018 
    ##  4 April      4.69 2018 
    ##  5 May        9.27 2018 
    ##  6 June       4.77 2018 
    ##  7 July      10.2  2018 
    ##  8 August     6.45 2018 
    ##  9 September 10.5  2018 
    ## 10 October    2.12 2018 
    ## # … with 14 more rows
